{
    "name": "truth_E_Atheta",
    "output_folder": "/eos/user/j/jrawling//www/pages/plots/Dead-Cone_Analysis/v0-03-03/correlations/",

    "samples": [
        "configs/samples/ttbar_dc_off.json",
        "configs/samples/ttbar_dc_on.json",
        "configs/samples/ttbar_debug.json"
    ],

    "weight": "weight_mc",
    "messages": [],

    "x_tuple": "particleLevel",
    "x_variable": "(particleLevel.theta[0]-particleLevel.theta_d)/(particleLevel.theta[0]+particleLevel.theta_d)",
    "x_axis_title": "Particle level leptonic A_{#theta}",
    "x_binning": "50,-1,1.0",

    "y_tuple": "truth",
    "y_variable": "( (truth.MC_t_afterFSR_pt*cosh(truth.MC_t_afterFSR_eta) )**2 + truth.MC_t_afterFSR_m**2)**0.5/1e3",
    "y_axis_title": "t after FSR E [GeV]",
    "y_binning": "50,0,2500.0"
}
