{
    "name": "ttbar_afterFSR_pt_theta",
    "output_folder": "/eos/user/j/jrawling//www/pages/plots/Dead-Cone_Analysis/v0-03-03/correlations/",

    "samples": [
        "configs/samples/ttbar_dc_off.json",
        "configs/samples/ttbar_dc_on.json",
        "configs/samples/ttbar_debug.json"
    ],

    "weight": "weight_mc",
    "messages": [],

    "x_tuple": "particleLevel",
    "x_variable": "particleLevel.theta[0]",
    "x_axis_title": "Particle level leptonic #theta",
    "x_binning": "50,0,15.0",

    "y_tuple": "truth",
    "y_variable": "truth.MC_ttbar_afterFSR_pt/1e3",
    "y_axis_title": "t#bar{t} after FSR p_{T} [GeV]",
    "y_binning": "50,0,800.0"
}
