{
    "name": "Pythia8 DC off",
    "evaluate_luminosity": false,
    
    "files": 
    [
        { 
            "folder": "/eos/atlas/atlascerngroupdisk/phys-top/deadcone//truth/user.jrawling.410413.Pythia8EvtGen.DAOD_TRUTH1.e6595_p3401.18-04-20_output.root/user.jrawling.13781866.*.output.root",
            "k_factor": 1.1398,
            "x_sec": 385.87,
            "data_period": "mc16a_mc16d"
        }
    ]    
}

